{
  "version": "1.0.0-*",
  "description": "IoMonkey Class Library",
  "authors": [ "Jan Bartipan" ],
  "tags": [""],
  "projectUrl": "https://bitbucket.org/rzo/iomonkey2-utils-cs",
  "licenseUrl": "https://bitbucket.org/rzo/iomonkey2-utils-cs/raw/9e2f4082d2646721879a355ace59dfa1eb0f1f25/LICENSE",
  "tooling": {
    "defaultNamespace": "IoMonkey"
  },

  "frameworks": {
    "net451": { },
    "dotnet5.4": {
      "dependencies": {
        "Microsoft.CSharp": "4.0.1-beta-23516",
        "System.Collections": "4.0.11-beta-23516",
        "System.Linq": "4.0.1-beta-23516",
        "System.Runtime": "4.0.21-beta-23516",
        "System.Threading": "4.0.11-beta-23516"
      }
    }
  }
}
